RAW/STAGE GET call responce:
 {"page": 2, "per_page": 3, "total": 12, "total_pages": 4, "data": [{"id": 4, "first_name": "Eve", "last_name": "Holt", "avatar": "https://s3.amazonaws.com/uifaces/faces/twitter/marcoramires/128.jpg"}, {"id": 5, "first_name": "Charles", "last_name": "Morris", "avatar": "https://s3.amazonaws.com/uifaces/faces/twitter/stephenmoon/128.jpg"}, {"id": 6, "first_name": "Tracey", "last_name": "Ramos", "avatar": "https://s3.amazonaws.com/uifaces/faces/twitter/bigmancho/128.jpg"}]}

Lenth of STAGE Parent Json is = 5
Lenth of STAGE Child Json is = 3 

PUT call responce code: 200

 DWH GET call responce:
 {"page": 2, "per_page": 3, "total": 12, "total_pages": 4, "data": [{"id": 4, "first_name": "Eve", "last_name": "Holt", "avatar": "https://s3.amazonaws.com/uifaces/faces/twitter/marcoramires/128.jpg"}, {"id": 5, "first_name": "Charles", "last_name": "Morris", "avatar": "https://s3.amazonaws.com/uifaces/faces/twitter/stephenmoon/128.jpg"}, {"id": 6, "first_name": "Tracey", "last_name": "Ramos", "avatar": "https://s3.amazonaws.com/uifaces/faces/twitter/bigmancho/128.jpg"}]}
Lenth of DWH Parent Json is = 5
Lenth of DWH Child Json is = 3

DW Parent count is same.
Parent count 5, DW Parent count 5, Difference = 0
DW Child count is same.
Child count 3, DW Child count 3, Difference = 0